# system info lt24_qsys on 2016.07.06.19:37:08
system_info:
name,value
DEVICE,5CSEMA4U23C6
DEVICE_FAMILY,Cyclone V
GENERATION_ID,1467848219
#
#
# Files generated for lt24_qsys on 2016.07.06.19:37:08
files:
filepath,kind,attributes,module,is_top
simulation/lt24_qsys.v,VERILOG,,lt24_qsys,true
simulation/submodules/lt24_qsys_LCD_RESET_N.v,VERILOG,,lt24_qsys_LCD_RESET_N,false
#
# Map from instance-path to kind of module
instances:
instancePath,module
lt24_qsys.LCD_RESET_N,lt24_qsys_LCD_RESET_N
lt24_qsys.LT24_Controller_0,lt24_qsys_LT24_Controller_0
lt24_qsys.jtag_uart,lt24_qsys_jtag_uart
lt24_qsys.key,lt24_qsys_key
lt24_qsys.nios2_qsys,lt24_qsys_nios2_qsys
lt24_qsys.onchip_memory,lt24_qsys_onchip_memory
lt24_qsys.pll_0,lt24_qsys_pll_0
lt24_qsys.sysid_qsys,lt24_qsys_sysid_qsys
lt24_qsys.timer,lt24_qsys_timer
lt24_qsys.touch_panel_busy,lt24_qsys_touch_panel_busy
lt24_qsys.touch_panel_pen_irq_n,lt24_qsys_touch_panel_pen_irq_n
lt24_qsys.touch_panel_spi,lt24_qsys_touch_panel_spi
lt24_qsys.mm_interconnect_0,lt24_qsys_mm_interconnect_0
lt24_qsys.irq_mapper,lt24_qsys_irq_mapper
lt24_qsys.irq_synchronizer,altera_irq_clock_crosser
lt24_qsys.irq_synchronizer_001,altera_irq_clock_crosser
lt24_qsys.irq_synchronizer_002,altera_irq_clock_crosser
lt24_qsys.irq_synchronizer_003,altera_irq_clock_crosser
lt24_qsys.rst_controller,altera_reset_controller
lt24_qsys.rst_controller_001,altera_reset_controller
lt24_qsys.rst_controller_002,altera_reset_controller
lt24_qsys.rst_controller_003,altera_reset_controller
lt24_qsys.rst_controller_004,altera_reset_controller
